%YAML 1.1
%TAG !u! tag:unity3d.com,2011:
--- !u!114 &11400000
MonoBehaviour:
  m_ObjectHideFlags: 0
  m_PrefabParentObject: {fileID: 0}
  m_PrefabInternal: {fileID: 0}
  m_GameObject: {fileID: 0}
  m_Enabled: 1
  m_EditorHideFlags: 0
  m_Script: {fileID: 11500000, guid: 39dc226e4819317489ebd78fbde47691, type: 3}
  m_Name: TileFloorDefinition
  m_EditorClassIdentifier: 
  isPassable: 1
  sprite: {fileID: 21300000, guid: 8cd5952bf1c22284cab7248bb3cd5145, type: 3}
  cost: 10
