%YAML 1.1
%TAG !u! tag:unity3d.com,2011:
--- !u!114 &11400000
MonoBehaviour:
  m_ObjectHideFlags: 0
  m_PrefabParentObject: {fileID: 0}
  m_PrefabInternal: {fileID: 0}
  m_GameObject: {fileID: 0}
  m_Enabled: 1
  m_EditorHideFlags: 0
  m_Script: {fileID: 454367454, guid: 1b23d7222dc4f54439109010ec8c7eb2, type: 3}
  m_Name: Settings
  m_EditorClassIdentifier: 
  AutoRebuild: 1
  ClassNamePrefix: SR
  ClassNameSuffix: 
  EnableWaiting: 1
  EnableWhitelist: 0
  HasShownWelcome: 1
  IncludeNonActiveScenes: 0
  MinimumBuildTime: 3.5
  Namespace: 
  OutputDirectory: $TYPESAFE$/usr
  ResourceFolderFilter: []
  TriggerOnInputChange: 1
  TriggerOnLayerChange: 1
  TriggerOnResourceChange: 1
  TriggerOnSceneChange: 1
  Whitelist: []
  TypeCache:
  - Path: Assets/Resources/GameBalance/TileDefinitions/TilePlayerBaseDefinition.asset
    Type: TileDefinition, Assembly-CSharp, Version=0.0.0.0, Culture=neutral, PublicKeyToken=null
  - Path: Assets/Resources/GameBalance/TileDefinitions/TileFloorDefinition.asset
    Type: TileDefinition, Assembly-CSharp, Version=0.0.0.0, Culture=neutral, PublicKeyToken=null
  - Path: Assets/Resources/GameBalance/EnemyDefinitions/EnemyNormalDefinition.asset
    Type: EnemyDefinition, Assembly-CSharp, Version=0.0.0.0, Culture=neutral, PublicKeyToken=null
  - Path: Assets/Resources/GameBalance/TileDefinitions/TileEnemySpawnDefinition.asset
    Type: TileDefinition, Assembly-CSharp, Version=0.0.0.0, Culture=neutral, PublicKeyToken=null
  - Path: Assets/Resources/GameBalance/General/GameBalance.asset
    Type: GameBalanceDefinition, Assembly-CSharp, Version=0.0.0.0, Culture=neutral,
      PublicKeyToken=null
  - Path: Assets/Resources/GameBalance/TileDefinitions/TileWallDefinition.asset
    Type: TileDefinition, Assembly-CSharp, Version=0.0.0.0, Culture=neutral, PublicKeyToken=null
  - Path: Assets/Resources/GameBalance/TurretDefinitions/TurretFast.asset
    Type: TurretDefinition, Assembly-CSharp, Version=0.0.0.0, Culture=neutral, PublicKeyToken=null
  - Path: Assets/Resources/GameBalance/TurretDefinitions/Turret.asset
    Type: TurretDefinition, Assembly-CSharp, Version=0.0.0.0, Culture=neutral, PublicKeyToken=null
