%YAML 1.1
%TAG !u! tag:unity3d.com,2011:
--- !u!114 &11400000
MonoBehaviour:
  m_ObjectHideFlags: 0
  m_PrefabParentObject: {fileID: 0}
  m_PrefabInternal: {fileID: 0}
  m_GameObject: {fileID: 0}
  m_Enabled: 1
  m_EditorHideFlags: 0
  m_Script: {fileID: 11500000, guid: 8b29a0f8212031c4b9b8fb535cace06e, type: 3}
  m_Name: EnemyNormalDefinition
  m_EditorClassIdentifier: 
  maxHP: 10
  tileTravelTime: 2
  enemySprite: {fileID: 21300000, guid: fcce8f44142478244b1252244e91ec3c, type: 3}
